{
    "articles" : [
        {
            "title" : "Some article title",
            "content" : "Some article content",
            "photoLink" : "assets/minion.jpg",
            "moreLink" : "https://9gag.com/trending"
        },
        {
            "title" : "Another article title",
            "content" : "Another article content",
            "photoLink" : "assets/minion.jpg",
            "moreLink" : "https://9gag.com/trending"
        },
        {
            "title" : "Another article title",
            "content" : "Another article content",
            "photoLink" : "assets/minion.jpg",
            "moreLink" : "https://9gag.com/trending"
        },
        {
            "title" : "Final article title",
            "content" : "Final article content",
            "photoLink" : "assets/minion.jpg",
            "moreLink" : "https://9gag.com/trending"
        }
    ]
}